team_04_tidyverse.qmd
…
# Convert the 'dt' column to Date format and extract the year
singapore_data$Year <- as.numeric(format(as.Date(singapore_data$dt, format="%Y-%m-%d"), "%Y"))

# Average the data by unique year and round to 1 decimal place
yearly_data <- singapore_data %>%
  group_by(Year) %>%
  summarise(
    AvgTemperature = round(mean(AverageTemperature, na.rm = TRUE), 1),
    AvgTemperatureUncertainty = round(mean(AverageTemperatureUncertainty, na.rm = TRUE), 1)
  )

print(yearly_data)

# A tibble: 172 × 3
    Year AvgTemperature AvgTemperatureUncertainty
   <dbl>          <dbl>                     <dbl>
 1  1825           26.4                       2.1
 2  1839           25.8                       1.8
 3  1840           25.9                       1.5
 4  1841           26                         1.4
 5  1842           26.1                       1.2
 6  1843           26.2                       1.1
 7  1844           25.7                       1  
 8  1845           25.6                       1.2
 9  1846           26.5                       1.2
10  1847           25.9                       1.3
# ℹ 162 more rows
…
